[
  {
    "states": [
      {
        "status": "default",
        "how_to_use": "This is the default state of the password element.",
        "code": [
          "<div class='form-group'>",
          "   <label for='password'>Password</label>",
          "   <div class='input-group'>",
          "       <input class='form-control eos-input-password' id='password' type='password'>",
          "       <div class='input-group-append'>",
          "           <i class='eos-icons eos-18 js-toggle-password'>visibility</i>",
          "       </div>",
          "   </div>",
          "   <div class='password-strength-meter visible short'><div class='meter'></div><div class='meter'></div><div class='meter'></div><div class='meter-text'></div></div>",
          "   <div class='form-messages'>Your password must be 8-20 characters long, contain letters numbers, and special characters.</div>",
          "</div>"
        ]
      },
      {
        "status": "focused",
        "how_to_use": "A focused state communicates when a user has highlighted an element using a keyboard or currently interacting with the field.",
        "code": [
          "<div class='form-group'>",
          "   <label for='password'>Password</label>",
          "   <div class='input-group'>",
          "       <input class='form-control eos-input-password' id='password' type='password' autofocus>",
          "       <div class='input-group-append'>",
          "           <i class='eos-icons eos-18  js-toggle-password'>visibility</i>",
          "       </div>",
          "   </div>",
          "   <div class='password-strength-meter visible short'><div class='meter'></div><div class='meter'></div><div class='meter'></div><div class='meter-text'></div></div>",
          "   <div class='form-messages'>Your password must be 8-20 characters long, contain letters numbers, and special characters.</div>",
          "</div>"
        ]
      },
      {
        "status": "weak",
        "how_to_use": "Give the user immediate feedback on the validity and strength of a new password while it is being typed. The red color represents a weak password strength.",
        "code": [
          "<div class='form-group'>",
          "   <label for='password'>Password</label>",
          "   <div class='input-group'>",
          "       <input class='form-control eos-input-password' id='password' type='password'>",
          "       <div class='input-group-append'>",
          "           <i class='eos-icons eos-18  js-toggle-password'>visibility</i>",
          "       </div>",
          "   </div>",
          "   <div class='password-strength-meter visible weak'><div class='meter'></div><div class='meter'></div><div class='meter'></div><div class='meter-text'></div></div>",
          "   <div class='form-messages'>Your password must be 8-20 characters long, contain letters numbers, and special characters.</div>",
          "</div>"
        ]
      },
      {
        "status": "medium",
        "how_to_use": "Give the user immediate feedback on the validity and strength of a new password while it is being typed. The yellow color represents a medium password strength.",
        "code": [
          "<div class='form-group'>",
          "   <label for='password'>Password</label>",
          "   <div class='input-group'>",
          "       <input class='form-control eos-input-password' id='password' type='password'>",
          "       <div class='input-group-append'>",
          "           <i class='eos-icons eos-18  js-toggle-password'>visibility</i>",
          "       </div>",
          "   </div>",
          "   <div class='password-strength-meter visible medium'><div class='meter'></div><div class='meter'></div><div class='meter'></div><div class='meter-text'></div></div>",
          "   <div class='form-messages'>Your password must be 8-20 characters long, contain letters numbers, and special characters.</div>",
          "</div>"
        ]
      },
      {
        "status": "strong",
        "how_to_use": "Give the user immediate feedback on the validity and strength of a new password while it is being typed. The green color represents a strong password strength.",
        "code": [
          "<div class='form-group'>",
          "   <label for='password'>Password</label>",
          "   <div class='input-group'>",
          "       <input class='form-control eos-input-password' id='password' type='password'>",
          "       <div class='input-group-append'>",
          "           <i class='eos-icons eos-18  js-toggle-password'>visibility</i>",
          "       </div>",
          "   </div>",
          "   <div class='password-strength-meter visible strong'><div class='meter'></div><div class='meter'></div><div class='meter'></div><div class='meter-text'></div></div>",
          "   <div class='form-messages'>Your password must be 8-20 characters long, contain letters numbers, and special characters.</div>",
          "</div>"
        ]
      },
      {
        "status": "disabled",
        "how_to_use": "This prevents the user from interacting with a field until certain conditions are met. When possible, show an alert or error message to inform users why it is disabled.",
        "code": [
          "<div class='form-group'>",
          "   <label for='password'>Password</label>",
          "   <div class='input-group'>",
          "       <input class='form-control eos-input-password' id='password' type='password' disabled>",
          "       <div class='input-group-append'>",
          "           <i class='eos-icons eos-18  js-toggle-password'>visibility</i>",
          "       </div>",
          "   </div>",
          "   <div class='password-strength-meter'><div class='meter'></div><div class='meter'></div><div class='meter'></div><div class='meter-text'></div></div>",
          "   <div class='form-messages'>Your password must be 8-20 characters long, contain letters numbers, and special characters.</div>",
          "</div>"
        ]
      },
      {
        "status": "error",
        "how_to_use": "It indicates there was an error with the field on submission. Only affected fields should be highlighted in red.",
        "code": [
          "<div class='form-group'>",
          "   <label for='password'>Password</label>",
          "   <div class='input-group'>",
          "       <input class='form-control eos-input-password error' id='password' type='password'>",
          "       <div class='input-group-append'>",
          "         <i class='eos-icons eos-18  js-toggle-password'>visibility</i>",
          "       </div>",
          "   </div>",
          "   <div class='password-strength-meter'><div class='meter'></div><div class='meter'></div><div class='meter'></div><div class='meter-text'></div></div>",
          "   <div class='form-messages d-none'>Your password must be 8-20 characters long, contain letters numbers, and special characters.</div>",
          "   <span class='error-msg'>Username and password don’t match.</span>",
          "</div>"
        ]
      }
    ]
  }
]
