[
  {
    "states": [
      {
        "status": "default",
        "how_to_use": "This is the default state of a select dropdown.",
        "code": [
          "<div class='form-group'>",
          "   <label for='select'><strong>Single selection</strong></label>",
          "   <select class='custom-select' id='select'>",
          "       <option value='0'>Choose one of the available options</option>",
          "       <option value='1'>Option 1</option>",
          "       <option value='2'>Option 2</option>",
          "       <option value='3'>Option 3</option>",
          "       <option value='4'>Option 4</option>",
          "   </select>",
          "</div>"
        ]
      },
      {
        "status": "focused",
        "how_to_use": "A focused state communicates when a user has highlighted an element using a keyboard or currently interacting with the single  selection element.",
        "code": [
          "<div class='form-group'>",
          "   <label for='select'><strong>Single selection</strong></label>",
          "   <select class='custom-select' id='select' autofocus>",
          "       <option value='0'>Choose one of the available options</option>",
          "       <option value='1'>Option 1</option>",
          "       <option value='2'>Option 2</option>",
          "       <option value='3'>Option 3</option>",
          "       <option value='4'>Option 4</option>",
          "   </select>",
          "</div>"
        ]
      },
      {
        "status": "selected",
        "how_to_use": "The selected state is used to display the selected option in a dropdown.",
        "code": [
          "<div class='form-group'>",
          "   <label for='select'><strong>Single selection</strong></label>",
          "   <select class='custom-select' id='select'>",
          "       <option value='0'>Choose one of the available options</option>",
          "       <option value='1' selected='selected'>Option 1</option>",
          "       <option value='2'>Option 2</option>",
          "       <option value='3'>Option 3</option>",
          "       <option value='4'>Option 4</option>",
          "   </select>",
          "</div>"
        ]
      },
      {
        "status": "disabled",
        "how_to_use": "This prevents the user from interacting with a the single selection element until certain conditions are met. When possible, show an alert or error message to inform users why it is disabled.",
        "code": [
          "<div class='form-group'>",
          "   <label class='disabled' for='select'><strong>Single selection</strong></label>",
          "   <select class='custom-select' id='select' disabled>",
          "       <option value='0'>Choose one of the available options</option>",
          "       <option value='1'>Option 1</option>",
          "       <option value='2'>Option 2</option>",
          "       <option value='3'>Option 3</option>",
          "       <option value='4'>Option 4</option>",
          "   </select>",
          "</div>"
        ]
      },
      {
        "status": "error",
        "how_to_use": "It indicates there was an error with the single selection element after submitting the form.",
        "code": [
          "<div class='form-group'>",
          "   <label for='select'><strong>Single selection</strong></label>",
          "   <select class='custom-select error' id='select'>",
          "       <option value='0'>Choose one of the available options</option>",
          "       <option value='1'>Option 1</option>",
          "       <option value='2'>Option 2</option>",
          "       <option value='3'>Option 3</option>",
          "       <option value='4'>Option 4</option>",
          "   </select>",
          "   <span class='error-msg'>You need to choose one of the options above.</span>",
          "</div>"
        ]
      },
      {
        "status": "approved-field",
        "how_to_use": "It indicates that the multiple selection element has a valid format and content.",
        "code": [
          "<div class='form-group'>",
          "   <label for='select'><strong>Single selection</strong></label>",
          "   <select class='custom-select approved' id='select'>",
          "       <option value='0'>Choose one of the available options</option>",
          "       <option value='1'>Option 1</option>",
          "       <option value='2'>Option 2</option>",
          "       <option value='3'>Option 3</option>",
          "       <option value='4'>Option 4</option>",
          "   </select>",
          "</div>"
        ]
      },
      {
        "status": "optional",
        "how_to_use": "Use (optional) to indicate non-mandatory fields rather than indicating only mandatory fields. This practice has proved to reduce stress in users when filling out long forms.",
        "code": [
          "<div class='form-group'>",
          "   <label for='select'><strong>Single selection</strong><span class='optional-label'> (optional)</span></label>",
          "   <select class='custom-select' id='select'>",
          "       <option value='0'>Choose one of the available options</option>",
          "       <option value='1'>Option 1</option>",
          "       <option value='2'>Option 2</option>",
          "       <option value='3'>Option 3</option>",
          "       <option value='4'>Option 4</option>",
          "   </select>",
          "</div>"
        ]
      }
    ]
  }
]
